[gd_scene load_steps=2 format=2]

[sub_resource type="RectangleShape2D" id=4]
extents = Vector2( 126.5, 10 )

[node name="ConveyorBelt" type="StaticBody2D" groups=["factory"]]

[node name="CollisionShape2D" type="CollisionShape2D" parent="."]
position = Vector2( 116.5, 0 )
shape = SubResource( 4 )
