[gd_scene load_steps=5 format=2]

[ext_resource path="res://Menu.gd" type="Script" id=1]
[ext_resource path="res://Asset/clipboard.png" type="Texture" id=2]

[sub_resource type="Animation" id=1]
resource_name = "Intro"
tracks/0/type = "value"
tracks/0/path = NodePath("ClipboardLayout:position")
tracks/0/interp = 1
tracks/0/loop_wrap = true
tracks/0/imported = false
tracks/0/enabled = true
tracks/0/keys = {
"times": PoolRealArray( 0, 1 ),
"transitions": PoolRealArray( 0.307786, 0.353553 ),
"update": 0,
"values": [ Vector2( -31, 277 ), Vector2( 0, 0 ) ]
}

[sub_resource type="Animation" id=2]
length = 0.001
tracks/0/type = "value"
tracks/0/path = NodePath("ClipboardLayout:position")
tracks/0/interp = 1
tracks/0/loop_wrap = true
tracks/0/imported = false
tracks/0/enabled = true
tracks/0/keys = {
"times": PoolRealArray( 0 ),
"transitions": PoolRealArray( 1 ),
"update": 0,
"values": [ Vector2( -31, 277 ) ]
}

[node name="Menu" type="CanvasLayer"]
script = ExtResource( 1 )

[node name="MessageTimer" type="Timer" parent="." groups=["default_menu"]]
wait_time = 5.0
one_shot = true

[node name="AnimationPlayer" type="AnimationPlayer" parent="." groups=["default_menu"]]
autoplay = "Intro"
anims/Intro = SubResource( 1 )
anims/RESET = SubResource( 2 )

[node name="ClipboardLayout" type="Node2D" parent="." groups=["default_menu"]]
position = Vector2( -31, 277 )

[node name="Clipboard" type="Sprite" parent="ClipboardLayout"]
position = Vector2( 243, 135 )
texture = ExtResource( 2 )

[connection signal="timeout" from="MessageTimer" to="." method="_on_MessageTimer_timeout"]
[connection signal="animation_finished" from="AnimationPlayer" to="." method="_on_AnimationPlayer_animation_finished"]
