[gd_scene load_steps=5 format=2]

[ext_resource path="res://Machine.tscn" type="PackedScene" id=1]
[ext_resource path="res://Piston.gd" type="Script" id=2]

[sub_resource type="RectangleShape2D" id=2]
extents = Vector2( 44, 27 )

[sub_resource type="ParticlesMaterial" id=1]
flag_disable_z = true
gravity = Vector3( 0, 98, 0 )
initial_velocity = 20.0
orbit_velocity = 0.0
orbit_velocity_random = 0.0

[node name="Piston" instance=ExtResource( 1 )]
position = Vector2( 236, 124 )
script = ExtResource( 2 )

[node name="CollisionShape2D" parent="." index="0"]
position = Vector2( 16, 25 )

[node name="InteractZone" parent="." index="4"]
z_index = -2

[node name="Sprite" parent="InteractZone" index="0"]
position = Vector2( 4.47035e-08, 42 )
scale = Vector2( 0.632143, 0.517857 )
region_enabled = true
region_rect = Rect2( 0, 0, 140, 105 )

[node name="CollisionShape2D" parent="InteractZone" index="1"]
position = Vector2( 0, 42 )
shape = SubResource( 2 )

[node name="OilLeak" type="Particles2D" parent="." index="5"]
visible = false
modulate = Color( 0.776471, 0.745098, 0.0156863, 1 )
position = Vector2( 7, -23 )
process_material = SubResource( 1 )
